…
## Explorative Analyse

Jetzt sind wir bereit, die Daten zu untersuchen.

``` r
library(katws)
```

Werfen wir einen ersten Blick auf den Datensatz.

``` r
euro_startups
#> # A tibble: 7,167 × 3
#>    category_list                                       status    country_code
#>    <chr>                                               <fct>     <fct>       
#>  1 Education                                           operating GBR         
#>  2 Local Businesses|Restaurants                        operating FRA         
#>  3 Cosmetics|Marketplaces                              operating FRA         
#>  4 Health and Wellness                                 operating GBR         
#>  5 Local Search|Software|Web Design                    acquired  AUT         
#>  6 Software                                            operating GBR         
#>  7 Publishing|Services                                 operating FRA         
#>  8 Augmented Reality|Computer Vision|Games|iPad|Mobile acquired  SWE         
#>  9 Fitness                                             operating GBR         
#> 10 Games                                               operating FRA         
#> # … with 7,157 more rows
```

`status` und `country_code` sind kategoriale Variablen (Factor).
`category_list`, das die Bereiche darstellt, in denen die Start-ups
tätig sind, kann ebenfalls als kategorisch angesehen werden, obwohl, da
viele nicht nur in einem Bereich tätig sind, es als `chr` gelassen wird,
um Anfragen wie die folgenden einfacher zu verwenden:

``` r
euro_startups %>% dplyr::filter(stringr::str_detect(.data$category_list, "Software"))
#> # A tibble: 1,516 × 3
#>    category_list                                                  status count…¹
#>    <chr>                                                          <fct>  <fct>  
#>  1 Local Search|Software|Web Design                               acqui… AUT    
#>  2 Software                                                       opera… GBR    
#>  3 Software                                                       opera… SWE    
#>  4 Hardware + Software                                            opera… FRA    
#>  5 Business Analytics|E-Commerce|Enterprise Software|Visualizati… opera… IRL    
#>  6 Software                                                       closed IRL    
#>  7 Advertising|Software                                           opera… GBR    
#>  8 3D Technology|Augmented Reality|Computers|Computer Vision|Ent… opera… DEU    
#>  9 Mobile|Software|Web Design|Web Development                     opera… GBR    
#> 10 Accounting|Business Development|Finance|Software|Web Developm… acqui… GBR    
#> # … with 1,506 more rows, and abbreviated variable name ¹​country_code
```
…
``` r
test_independence(euro_startups, country_code, status, 1000, 1000, TRUE);
#> Theoretical approach for the data set:
#>   X-squared value: 15.290
#>   degrees of freedom: 14
#>   p-value: 0.359
```

<img src="man/figures/README-startups_independence_plot-1.png" width="100%" />

    #> Response: country_code (factor)
    #> Explanatory: status (factor)
    #> Null Hypothesis: independence
    #> # A tibble: 1,000 × 2
    #>    replicate  stat
    #>        <int> <dbl>
    #>  1         1  7.97
    #>  2         2 20.3 
    #>  3         3 10.2 
    #>  4         4  6.66
    #>  5         5 17.8 
    #>  6         6 11.0 
    #>  7         7  8.54
    #>  8         8  5.36
    #>  9         9  6.46
    #> 10        10  8.05
    #> # … with 990 more rows
…
``` r
test_independence(accidents21, accident_severity, day_of_week, 1000, 1000, TRUE);
#> Theoretical approach for the data set:
#>   X-squared value: 118.731
#>   degrees of freedom: 12
#>   p-value: 1.11e-19
```

<img src="man/figures/README-accidents_independence_plot-1.png" width="100%" />

    #> Response: accident_severity (factor)
    #> Explanatory: day_of_week (factor)
    #> Null Hypothesis: independence
    #> # A tibble: 1,000 × 2
    #>    replicate  stat
    #>        <int> <dbl>
    #>  1         1  9.61
    #>  2         2  7.29
    #>  3         3 10.8 
    #>  4         4  5.90
    #>  5         5 12.2 
    #>  6         6 14.4 
    #>  7         7  9.74
    #>  8         8 12.2 
    #>  9         9  9.99
    #> 10        10 10.6 
    #> # … with 990 more rows
…
